[
  {
    "name": "John",
    "count": 10
  },
  {
    "name": "Mark",
    "count": 50
  },
  {
  "name": "Simon",
  "count": 24
  },
  {
    "name": "Olivia",
    "count": 100
  },
  {
    "name": "Catrin",
    "count": 80
  }
]

